{
  "INVALID_EMAIL": "El email es invalido, debe ser de la forma: ejemplo@email.com",
  "INVALID_LOGIN_INFO": "El email y/o la contraseña son inválidos",
  "USERID_NOT_FOUND":"No se encontró el usuario indicado",
  "USER_ALREADY_EXIST":"Ya existe un usuario con ese email",
  "CRYPTO_NOT_FOUND":"No se encontró la cryptomoneda",
  "RULE_ALREADY_EXIST":"Ya existe una regla con ese nombre",
  "RULE_NOT_EXIST":"No existe una regla con ese nombre",
  "RULE_BASIC_ATTRIBUTE_MISSING": "La regla recibida no contiene alguno de los siguientes campos: 'name', 'condition', 'action'",
  "PENDING_RULE_NOT_EXIST":"No existe una regla pendiente con ese nombre",
  "VARIABLE_DOES_NOT_EXIST":"El usuario no tiene una variable con ese nombre",
  "INVALID_DATA_WINDOW":"El rango de tiempo de la condicion DATA es invalido (0 <= until <= from <= 172800), siendo el maximo 2 dias (172800 segundos)\n",
  "INVALID_DATA_PARAM_TYPE": "Los parametros from y until da la condicion DATA deben ser numericos",
  "CONSTANT_UNDEFINED":"No se definio un valor (value) para la condicion constante (type: CONSTANT)",
  "RULE_CONDITION_MUST_CONTAIN_TYPE": "Error al interpretar las reglas, el campo 'condition' debe ser un diccionario JSON valido (Ej: {type: CONSTANT, ...})",
  "RULE_ACTION_MUST_BE_ARR": "Error al interpretar las reglas, el campo 'action' debe ser un arreglo (Ej: [{accion1}, {accion2}, ...])",
  "RULE_ATTRIBUTE_MISSING":"Error al definir la regla, es invalido o no se encontró el atributo",
  "RULE_ATTRIBUTE_MISSING_2":" de la condicion/accion:",
  "RULE_CONDITION_NOT_BOOLEAN": "Error al evaluar la condicion de la regla, el resultado final debe ser un valor booleano (true o false)",
  "RULE_ERROR_EXECUTING_ACTION": "Error al intentar ejecutar una accion, ",
  "BAD_FUNCTION_NAME":"Error al definir la regla, el nombre (name) de la funcion (CALL) es invalido.",
  "INVALID_SYMBOL":"No se puede definir la regla con el simbolo",
  "INVALID_API_KEY_SECRET":"El api-key o el api-secret es invalido y no fueron actualizados",
  "VARIABLE_REQUIRED_NOT_SPECIFIED":"Se requiere una variable que no esta en la lista de variables requeridas",
  "TOKEN_INVALID":"El jwt es invalido",
  "TOKEN_EXPIRED":"El jwt expiro, es necesario logearse nuevamente",
  "TOKEN_NOT_FOUND":"No se recibio un token en el header\n"
}